Process model uncertainity
…
#variance of combined uncertainty
var_df_combo.unc<-totalUC_df %>% group_by(variable, datetime) %>%
  summarize(combo.unc=var(prediction))

#sum of individual variances
var_df_sum.var<-var_df %>% group_by(variable, datetime) %>%
  summarize(sum.var=sum(variance))

#comparison of variances
var.comparison<-left_join(var_df_combo.unc, var_df_sum.var, by=c('variable', 'datetime'))

var.comparison$var.diff<-var.comparison$combo.unc-var.comparison$sum.var
var.comparison

# A tibble: 408 × 5
# Groups:   variable [12]
   variable datetime    combo.unc   sum.var   var.diff
   <chr>    <date>          <dbl>     <dbl>      <dbl>
 1 gpp      2023-11-15 NA         NA        NA        
 2 gpp      2023-11-16  0.000114   0.000128 -0.0000145
 3 gpp      2023-11-17  0.0000778  0.000180 -0.000103 
 4 gpp      2023-11-18  0.0000463  0.000161 -0.000115 
 5 gpp      2023-11-19  0.0000239  0.000190 -0.000166 
 6 gpp      2023-11-20  0.0000700  0.000198 -0.000128 
 7 gpp      2023-11-21  0.000130   0.000219 -0.0000890
 8 gpp      2023-11-22  0.000183   0.000284 -0.000101 
 9 gpp      2023-11-23  0.000274   0.000386 -0.000112 
10 gpp      2023-11-24  0.000111   0.000232 -0.000121 
# ℹ 398 more rows
…
